:red_heart: :  273
:smiling_face_with_heart-eyes: :  217
:sparkles: :  155
:blue_heart: :  119
:sun: :  102
:raising_hands: :  100
:sparkling_heart: :  92
:heavy_minus_sign: :  82
:OK_hand: :  78
:sun_with_face: :  78
:smiling_face_with_smiling_eyes: :  77
:winking_face: :  75
:face_savoring_food: :  70
:smiling_face_with_sunglasses: :  70
:hot_beverage: :  58
:snowflake: :  58
:herb: :  55
:green_heart: :  54
:yellow_heart: :  53
:two_hearts: :  53