:OK_hand: :  18227
:red_heart: :  4749
:sparkles: :  2736
:raising_hands: :  2339
:smiling_face_with_heart-eyes: :  2049
:smiling_face_with_smiling_eyes: :  2003
:sun: :  1928
:victory_hand: :  1567
:green_heart: :  1269
:fire: :  1246
:folded_hands: :  1006
:smiling_face_with_sunglasses: :  957
:camera: :  883
:hot_beverage: :  882
:two_hearts: :  881
:backhand_index_pointing_right: :  854
:face_savoring_food: :  790
:flexed_biceps: :  763
:snowflake: :  748
:seedling: :  744