word,tfidf_value
tatovørnørrebro,1012.4274519370797
prettypunkcph,927.917647935654
femaletattooartist,885.6627459349411
tatovørkøbenhavn,708.9206617884092
tattoocph,612.6960790103362
prettypunk,600.8647064501366
feelgoodbakery,407.50696521835647
snudeplanter,393.81568664664366
plantfriends,391.2803925266009
tatuering,389.3194388416809
plantas,388.74509840655816
النباتات,386.20980428651535
muttilove,385.3647062465011
birkegade,369.96627015818746
plantscout,359.16666700605913
elmegade,357.7520076662254
ravnsborggade,345.3005483076764
wearenørrebro,334.92545777452153
itspersonal,332.96862776561716
othervalues,319.4470591253891
