words, tf-idf
pool funds own projects, 3.8907562519182184
location houseboat by, 2.3344537511509307
pool decisions small pool, 1.5563025007672873
proposal local plan enghavevej, 1.5563025007672873
citizen meeting vests remise park, 1.5563025007672873
vester remisepark directed by, 1.5563025007672873
own projects overview, 1.5563025007672873
building analysis vester remisepark, 1.5563025007672873
permit trap two, 1.5563025007672873
input placement sculpture, 1.5563025007672873
New School Districts Letter of Hearing, 1.5563025007672873
neighboring orientation remodeling red, 1.5563025007672873
remodeling red warehouse, 1.5563025007672873
red warehouse old, 1.5563025007672873
old carlsberg warehouse, 1.5563025007672873
litau's place enghave, 1.5563025007672873
space enghave park, 1.5563025007672873
houseboat at the ship bridge, 1.5563025007672873
houseboat at the ship bridge, 1.5563025007672873
technology environmental Mayor August, 1.5563025007672873
