LOCATION: Nordhavn

[(0, '0.015*"bydel" + 0.014*"nye" + 0.013*"altan"'), (1, '0.007*"nye" + 0.007*"plad" + 0.006*"lejligheden"'), (2, '0.008*"altan" + 0.008*"cph" + 0.005*"porthous"'), (3, '0.018*"cph" + 0.015*"kan" + 0.015*"porthous"'), (4, '0.015*"kan" + 0.014*"nordhavn" + 0.011*"byen"'), (5, '0.011*"store" + 0.011*"altan" + 0.009*"ligger"'), (6, '0.015*"kan" + 0.014*"nordhavn" + 0.012*"sundmolen"'), (7, '0.014*"nye" + 0.014*"altan" + 0.012*"ved"'), (8, '0.014*"plad" + 0.011*"lejligheden" + 0.010*"nye"'), (9, '0.011*"kan" + 0.008*"altan" + 0.007*"cph"'), (10, '0.010*"køkken" + 0.009*"store" + 0.008*"nye"'), (11, '0.009*"altan" + 0.009*"nye" + 0.009*"ligger"'), (12, '0.016*"plad" + 0.014*"lejligheden" + 0.010*"nye"'), (13, '0.014*"store" + 0.012*"samt" + 0.010*"lejligh"'), (14, '0.015*"kan" + 0.010*"sundmolen" + 0.009*"nordhavn"'), (15, '0.012*"byen" + 0.012*"kan" + 0.011*"nordhavn"'), (16, '0.005*"nordhavn" + 0.005*"altan" + 0.005*"kan"'), (17, '0.009*"plad" + 0.008*"kan" + 0.008*"nordhavnen"'), (18, '0.009*"altan" + 0.008*"store" + 0.008*"plad"'), (19, '0.015*"nye" + 0.014*"lige" + 0.013*"altan"'), (20, '0.007*"altan" + 0.006*"lejligh" + 0.005*"stor"'), (21, '0.011*"sundmolehusen" + 0.008*"kan" + 0.007*"altan"'), (22, '0.014*"byen" + 0.014*"nordhavn" + 0.013*"copenhagen"'), (23, '0.015*"cph" + 0.012*"del" + 0.011*"sundmolehusen"'), (24, '0.012*"nye" + 0.011*"kan" + 0.009*"plad"'), (25, '0.020*"lejligheden" + 0.011*"nordhavnen" + 0.010*"plad"'), (26, '0.008*"store" + 0.007*"ved" + 0.007*"altan"'), (27, '0.011*"kan" + 0.011*"plad" + 0.008*"sundmolehusen"'), (28, '0.013*"plad" + 0.012*"nye" + 0.010*"altan"'), (29, '0.016*"lejligheden" + 0.008*"nordhavnen" + 0.007*"kan"'), (30, '0.015*"plad" + 0.011*"nye" + 0.010*"lejligheden"'), (31, '0.019*"nye" + 0.015*"altan" + 0.014*"store"'), (32, '0.014*"cph" + 0.014*"porthous" + 0.009*"altan"'), (33, '0.013*"lejligheden" + 0.012*"plad" + 0.010*"kan"'), (34, '0.013*"kan" + 0.009*"plad" + 0.007*"copenhagen"'), (35, '0.014*"nordhavn" + 0.011*"samt" + 0.010*"copenhagen"'), (36, '0.014*"nordhavn" + 0.012*"sundmolen" + 0.010*"kan"'), (37, '0.011*"kan" + 0.009*"lejligheden" + 0.009*"samt"'), (38, '0.010*"kan" + 0.009*"samt" + 0.008*"porthous"'), (39, '0.011*"kan" + 0.010*"nordhavn" + 0.010*"plad"'), (40, '0.010*"nye" + 0.010*"plad" + 0.010*"store"'), (41, '0.018*"cph" + 0.014*"porthous" + 0.010*"ligger"'), (42, '0.001*"gennem" + 0.001*"gang" + 0.001*"grøn"'), (43, '0.018*"nordhavn" + 0.016*"sundmolen" + 0.015*"copenhagen"'), (44, '0.014*"store" + 0.013*"nye" + 0.013*"plad"'), (45, '0.015*"nye" + 0.014*"ved" + 0.014*"store"'), (46, '0.013*"plad" + 0.010*"kan" + 0.007*"samt"'), (47, '0.012*"stor" + 0.010*"samt" + 0.009*"kommend"'), (48, '0.024*"cph" + 0.019*"porthous" + 0.012*"kan"'), (49, '0.011*"cph" + 0.009*"porthous" + 0.006*"ligger"')]
[12, 31]

STRONGEST:
- (12, '0.016*"plad" + 0.014*"lejligheden" + 0.010*"nye"')
- (31, '0.019*"nye" + 0.015*"altan" + 0.014*"store"')


LOCATION: Valby

[(0, '0.012*"kan" + 0.009*"nordhavn" + 0.009*"modern"'), (1, '0.012*"lejligheden" + 0.010*"nye" + 0.008*"plad"'), (2, '0.018*"nye" + 0.017*"valbi" + 0.016*"bolig"'), (3, '0.009*"valbi" + 0.009*"nye" + 0.007*"bolig"'), (4, '0.009*"kan" + 0.009*"ligger" + 0.009*"samt"'), (5, '0.014*"kan" + 0.014*"lejligheden" + 0.010*"plad"'), (6, '0.019*"lejligheden" + 0.013*"kan" + 0.006*"lejligh"'), (7, '0.013*"kan" + 0.013*"lejligheden" + 0.009*"samt"'), (8, '0.011*"lejligheden" + 0.010*"ligger" + 0.009*"kan"'), (9, '0.015*"kan" + 0.012*"lejligheden" + 0.011*"plad"'), (10, '0.019*"kan" + 0.015*"lejligheden" + 0.011*"to"'), (11, '0.025*"bolig" + 0.020*"valbi" + 0.020*"nye"'), (12, '0.035*"valbi" + 0.032*"bolig" + 0.027*"nye"'), (13, '0.011*"nye" + 0.010*"plad" + 0.010*"samt"'), (14, '0.010*"kan" + 0.007*"altan" + 0.007*"samt"'), (15, '0.011*"kan" + 0.010*"lejligheden" + 0.009*"stor"'), (16, '0.009*"lejligheden" + 0.005*"nordhavnen" + 0.004*"nye"'), (17, '0.013*"kan" + 0.007*"plad" + 0.007*"masser"'), (18, '0.015*"lejligheden" + 0.015*"kan" + 0.010*"plad"'), (19, '0.016*"bolig" + 0.014*"nye" + 0.012*"valbi"'), (20, '0.014*"kan" + 0.010*"lejligheden" + 0.007*"samt"'), (21, '0.013*"valbi" + 0.012*"nye" + 0.010*"bolig"'), (22, '0.022*"lejligheden" + 0.009*"godt" + 0.009*"gode"'), (23, '0.023*"valbi" + 0.021*"bolig" + 0.013*"nye"'), (24, '0.012*"lejligheden" + 0.011*"kan" + 0.010*"valbi"'), (25, '0.012*"lejligheden" + 0.011*"valbi" + 0.009*"samt"'), (26, '0.011*"kan" + 0.008*"valbi" + 0.008*"store"'), (27, '0.017*"lejligheden" + 0.012*"valbi" + 0.011*"bolig"'), (28, '0.013*"altan" + 0.012*"nye" + 0.010*"nordhavn"'), (29, '0.018*"valbi" + 0.016*"bolig" + 0.013*"nye"'), (30, '0.012*"kan" + 0.011*"valbi" + 0.007*"lejligheden"'), (31, '0.008*"lejligheden" + 0.007*"ligger" + 0.007*"køkken"'), (32, '0.014*"nye" + 0.012*"store" + 0.011*"ligger"'), (33, '0.013*"ligger" + 0.011*"kan" + 0.009*"store"'), (34, '0.011*"nye" + 0.010*"valbi" + 0.008*"kan"'), (35, '0.009*"lejligheden" + 0.006*"valbi" + 0.006*"kan"'), (36, '0.006*"plad" + 0.004*"lejligheden" + 0.004*"finder"'), (37, '0.008*"valbi" + 0.008*"store" + 0.008*"kan"'), (38, '0.008*"lejligheden" + 0.007*"godt" + 0.006*"gode"'), (39, '0.022*"bolig" + 0.021*"valbi" + 0.015*"nye"'), (40, '0.028*"bolig" + 0.022*"valbi" + 0.019*"nye"'), (41, '0.013*"valbi" + 0.013*"kan" + 0.010*"lejligheden"'), (42, '0.013*"lejligheden" + 0.010*"kan" + 0.007*"modern"'), (43, '0.014*"valbi" + 0.011*"kan" + 0.008*"modern"'), (44, '0.010*"lejligheden" + 0.010*"kan" + 0.009*"plad"'), (45, '0.012*"kan" + 0.009*"ligger" + 0.009*"lejligheden"'), (46, '0.012*"cph" + 0.012*"kan" + 0.008*"porthous"'), (47, '0.011*"kan" + 0.010*"lejligheden" + 0.006*"valbi"'), (48, '0.025*"valbi" + 0.022*"bolig" + 0.018*"nye"'), (49, '0.012*"cph" + 0.010*"porthous" + 0.007*"kan"')]
[0, 1, 13, 33]

STRONGEST:
- (0, '0.012*"kan" + 0.009*"nordhavn" + 0.009*"modern"')
- (1, '0.012*"lejligheden" + 0.010*"nye" + 0.008*"plad"')
- (13, '0.011*"nye" + 0.010*"plad" + 0.010*"samt"')
- (33, '0.013*"ligger" + 0.011*"kan" + 0.009*"store"')


LOCATION: København N

[(0, '0.008*"store" + 0.007*"altan" + 0.007*"værels"'), (1, '0.021*"kan" + 0.011*"lejligheden" + 0.009*"plad"'), (2, '0.017*"lejligheden" + 0.014*"kan" + 0.010*"altan"'), (3, '0.012*"nordhavn" + 0.010*"nye" + 0.009*"sundmolen"'), (4, '0.012*"kan" + 0.007*"nordhavn" + 0.007*"gode"'), (5, '0.009*"kan" + 0.008*"nye" + 0.007*"ligger"'), (6, '0.012*"valbi" + 0.010*"lejligheden" + 0.008*"nye"'), (7, '0.015*"valbi" + 0.012*"bolig" + 0.012*"samt"'), (8, '0.020*"bolig" + 0.020*"valbi" + 0.018*"nye"'), (9, '0.011*"kan" + 0.008*"cph" + 0.006*"gode"'), (10, '0.013*"valbi" + 0.012*"nye" + 0.011*"bolig"'), (11, '0.004*"valbi" + 0.004*"sundmolehusen" + 0.004*"kan"'), (12, '0.018*"ligger" + 0.009*"boligen" + 0.008*"kan"'), (13, '0.010*"nye" + 0.009*"lejligheden" + 0.009*"stor"'), (14, '0.015*"valbi" + 0.011*"kan" + 0.009*"ligger"'), (15, '0.026*"bolig" + 0.023*"valbi" + 0.015*"nye"'), (16, '0.032*"valbi" + 0.029*"bolig" + 0.025*"nye"'), (17, '0.012*"kan" + 0.010*"lejligheden" + 0.007*"både"'), (18, '0.011*"kan" + 0.010*"lejligheden" + 0.009*"ligger"'), (19, '0.020*"lejligheden" + 0.011*"valbi" + 0.010*"bolig"'), (20, '0.005*"kan" + 0.004*"så" + 0.004*"både"'), (21, '0.013*"kan" + 0.012*"samt" + 0.009*"valbi"'), (22, '0.016*"bolig" + 0.014*"valbi" + 0.012*"modern"'), (23, '0.013*"lejligheden" + 0.010*"kan" + 0.007*"ligger"'), (24, '0.012*"samt" + 0.011*"lejligheden" + 0.009*"kan"'), (25, '0.019*"nye" + 0.012*"bolig" + 0.010*"samt"'), (26, '0.014*"kan" + 0.008*"plad" + 0.008*"lejligheden"'), (27, '0.015*"kan" + 0.010*"ligger" + 0.010*"lejligheden"'), (28, '0.014*"nye" + 0.012*"store" + 0.010*"altan"'), (29, '0.008*"kan" + 0.007*"modern" + 0.006*"lejligheden"'), (30, '0.011*"kan" + 0.006*"lejligheden" + 0.005*"hele"'), (31, '0.018*"kan" + 0.009*"ligger" + 0.007*"ved"'), (32, '0.018*"bolig" + 0.015*"valbi" + 0.013*"nye"'), (33, '0.018*"bolig" + 0.017*"nye" + 0.016*"valbi"'), (34, '0.012*"kan" + 0.011*"sundmolehusen" + 0.008*"bolig"'), (35, '0.014*"kan" + 0.009*"ligger" + 0.009*"lejligheden"'), (36, '0.008*"kan" + 0.006*"modern" + 0.006*"lejligheden"'), (37, '0.017*"cph" + 0.014*"porthous" + 0.013*"kan"'), (38, '0.018*"valbi" + 0.015*"bolig" + 0.013*"nye"'), (39, '0.017*"valbi" + 0.014*"lejligheden" + 0.013*"kan"'), (40, '0.011*"ligger" + 0.009*"valbi" + 0.008*"kan"'), (41, '0.011*"kan" + 0.011*"lejligheden" + 0.009*"samt"'), (42, '0.014*"kan" + 0.014*"plad" + 0.012*"lejligheden"'), (43, '0.011*"kan" + 0.010*"ligger" + 0.008*"lejligheden"'), (44, '0.006*"cph" + 0.006*"kan" + 0.005*"porthous"'), (45, '0.014*"altan" + 0.011*"nye" + 0.010*"kan"'), (46, '0.011*"kan" + 0.006*"lejligheden" + 0.005*"masser"'), (47, '0.017*"nye" + 0.013*"altan" + 0.011*"bolig"'), (48, '0.016*"kan" + 0.013*"lejligheden" + 0.007*"samt"'), (49, '0.013*"store" + 0.012*"nye" + 0.009*"altan"')]
[28, 33, 43]

STRONGEST:
- (28, '0.014*"nye" + 0.012*"store" + 0.010*"altan"')
- (33, '0.018*"bolig" + 0.017*"nye" + 0.016*"valbi"')
- (43, '0.011*"kan" + 0.010*"ligger" + 0.008*"lejligheden"')


LOCATION: København K

[(0, '0.017*"lejligheden" + 0.011*"kan" + 0.010*"plad"'), (1, '0.014*"kan" + 0.012*"plad" + 0.008*"lejligheden"'), (2, '0.030*"valbi" + 0.024*"bolig" + 0.021*"nye"'), (3, '0.015*"lejligheden" + 0.011*"kan" + 0.008*"ved"'), (4, '0.014*"kan" + 0.013*"så" + 0.012*"quintu"'), (5, '0.018*"bolig" + 0.012*"valbi" + 0.011*"samt"'), (6, '0.011*"kan" + 0.009*"køkken" + 0.008*"samt"'), (7, '0.016*"kan" + 0.015*"lejligheden" + 0.011*"både"'), (8, '0.013*"kan" + 0.006*"ved" + 0.006*"københavn"'), (9, '0.012*"lejligheden" + 0.011*"kan" + 0.009*"ligger"'), (10, '0.026*"bolig" + 0.021*"valbi" + 0.018*"nye"'), (11, '0.011*"altan" + 0.010*"ligger" + 0.009*"lige"'), (12, '0.019*"kan" + 0.010*"lejligheden" + 0.007*"både"'), (13, '0.009*"bolig" + 0.006*"samt" + 0.005*"kan"'), (14, '0.008*"kan" + 0.008*"altan" + 0.007*"lige"'), (15, '0.013*"lejligheden" + 0.010*"kan" + 0.008*"så"'), (16, '0.013*"lejligheden" + 0.010*"kan" + 0.008*"store"'), (17, '0.012*"kan" + 0.008*"lejligheden" + 0.006*"nye"'), (18, '0.015*"nye" + 0.010*"altan" + 0.008*"store"'), (19, '0.010*"kan" + 0.008*"lejligheden" + 0.008*"valbi"'), (20, '0.015*"lejligheden" + 0.010*"samt" + 0.008*"nye"'), (21, '0.034*"bolig" + 0.031*"valbi" + 0.022*"nye"'), (22, '0.013*"valbi" + 0.013*"kan" + 0.012*"lejligheden"'), (23, '0.014*"kan" + 0.012*"lejligheden" + 0.010*"ligger"'), (24, '0.012*"kan" + 0.007*"københavn" + 0.007*"plad"'), (25, '0.018*"kan" + 0.009*"lejligheden" + 0.008*"ligger"'), (26, '0.014*"lejligheden" + 0.012*"kan" + 0.008*"ligger"'), (27, '0.009*"bastionen" + 0.008*"kan" + 0.008*"modern"'), (28, '0.019*"lejligheden" + 0.016*"kan" + 0.007*"lejligh"'), (29, '0.026*"bolig" + 0.023*"nye" + 0.023*"valbi"'), (30, '0.013*"kan" + 0.007*"både" + 0.007*"modern"'), (31, '0.017*"lejligheden" + 0.010*"kan" + 0.008*"ligger"'), (32, '0.012*"cph" + 0.011*"kan" + 0.009*"porthous"'), (33, '0.016*"kan" + 0.013*"valbi" + 0.011*"ligger"'), (34, '0.014*"kan" + 0.011*"lejligheden" + 0.005*"store"'), (35, '0.009*"kan" + 0.009*"store" + 0.009*"lejligheden"'), (36, '0.015*"lejligheden" + 0.012*"ligger" + 0.011*"kan"'), (37, '0.010*"kan" + 0.009*"samt" + 0.009*"nordhavn"'), (38, '0.016*"kan" + 0.011*"plad" + 0.009*"lejligheden"'), (39, '0.016*"kan" + 0.014*"lejligheden" + 0.006*"store"'), (40, '0.010*"lejligheden" + 0.010*"kan" + 0.007*"plad"'), (41, '0.011*"ligger" + 0.009*"valbi" + 0.008*"kan"'), (42, '0.013*"altan" + 0.011*"lejligheden" + 0.010*"nye"'), (43, '0.015*"kan" + 0.008*"lejligheden" + 0.007*"samt"'), (44, '0.012*"plad" + 0.011*"nye" + 0.011*"store"'), (45, '0.014*"bolig" + 0.014*"valbi" + 0.013*"nye"'), (46, '0.013*"nye" + 0.011*"bolig" + 0.010*"altan"'), (47, '0.011*"kan" + 0.010*"plad" + 0.007*"lige"'), (48, '0.008*"kan" + 0.008*"bastionen" + 0.007*"københavn"'), (49, '0.019*"porthous" + 0.016*"cph" + 0.014*"kan"')]
[18, 49]

STRONGEST:
- (18, '0.015*"nye" + 0.010*"altan" + 0.008*"store"')
- (49, '0.019*"porthous" + 0.016*"cph" + 0.014*"kan"')


LOCATION: København V

[(0, '0.015*"kan" + 0.009*"lejligheden" + 0.007*"lejligh"'), (1, '0.013*"kan" + 0.010*"lejligheden" + 0.008*"så"'), (2, '0.015*"kan" + 0.008*"lejligheden" + 0.007*"ligger"'), (3, '0.018*"kan" + 0.011*"lejligheden" + 0.011*"valbi"'), (4, '0.015*"kan" + 0.010*"plad" + 0.009*"lejligheden"'), (5, '0.011*"lejligheden" + 0.009*"kan" + 0.009*"ligger"'), (6, '0.018*"kan" + 0.009*"lejligheden" + 0.007*"plad"'), (7, '0.014*"kan" + 0.011*"nordhavn" + 0.009*"byen"'), (8, '0.015*"kan" + 0.012*"lejligheden" + 0.007*"giver"'), (9, '0.012*"kan" + 0.009*"lejligheden" + 0.007*"lejligh"'), (10, '0.016*"cph" + 0.013*"porthous" + 0.008*"kan"'), (11, '0.010*"valbi" + 0.010*"bolig" + 0.009*"kan"'), (12, '0.008*"ligger" + 0.007*"kan" + 0.007*"samt"'), (13, '0.014*"lejligheden" + 0.010*"kan" + 0.007*"lejligh"'), (14, '0.016*"kan" + 0.010*"lejligheden" + 0.007*"ligger"'), (15, '0.014*"kan" + 0.007*"stor" + 0.007*"lejligh"'), (16, '0.012*"lejligheden" + 0.011*"kan" + 0.010*"store"'), (17, '0.028*"valbi" + 0.027*"bolig" + 0.023*"nye"'), (18, '0.016*"lejligheden" + 0.010*"ligger" + 0.009*"kan"'), (19, '0.011*"lejligheden" + 0.010*"ligger" + 0.009*"adgang"'), (20, '0.010*"ved" + 0.009*"store" + 0.008*"nye"'), (21, '0.012*"kan" + 0.008*"lejligheden" + 0.007*"altan"'), (22, '0.011*"kan" + 0.008*"både" + 0.007*"københavn"'), (23, '0.010*"altan" + 0.009*"kan" + 0.008*"store"'), (24, '0.006*"flot" + 0.005*"to" + 0.005*"både"'), (25, '0.008*"altan" + 0.007*"ligger" + 0.007*"store"'), (26, '0.012*"kan" + 0.011*"lejligheden" + 0.007*"ligger"'), (27, '0.012*"kan" + 0.007*"plad" + 0.006*"københavn"'), (28, '0.010*"nye" + 0.009*"store" + 0.009*"altan"'), (29, '0.010*"kan" + 0.009*"altan" + 0.008*"samt"'), (30, '0.013*"plad" + 0.011*"kan" + 0.007*"lejligheden"'), (31, '0.014*"lejligheden" + 0.007*"både" + 0.006*"kan"'), (32, '0.015*"lejligheden" + 0.011*"kan" + 0.008*"plad"'), (33, '0.012*"altan" + 0.009*"lige" + 0.008*"nye"'), (34, '0.015*"kan" + 0.011*"bolig" + 0.009*"valbi"'), (35, '0.011*"lejligheden" + 0.009*"kan" + 0.008*"bolig"'), (36, '0.010*"store" + 0.009*"lejligheden" + 0.008*"kan"'), (37, '0.015*"bolig" + 0.014*"valbi" + 0.013*"nye"'), (38, '0.016*"kan" + 0.008*"både" + 0.007*"lejligheden"'), (39, '0.012*"lejligheden" + 0.009*"store" + 0.009*"kan"'), (40, '0.008*"lejligheden" + 0.004*"kan" + 0.004*"lejligh"'), (41, '0.021*"kan" + 0.019*"lejligheden" + 0.008*"lejligh"'), (42, '0.011*"bolig" + 0.009*"nye" + 0.009*"altan"'), (43, '0.011*"lejligheden" + 0.007*"nye" + 0.007*"gode"'), (44, '0.009*"lejligheden" + 0.009*"kan" + 0.006*"så"'), (45, '0.015*"lejligheden" + 0.011*"kan" + 0.010*"lejligh"'), (46, '0.017*"kan" + 0.010*"lejligheden" + 0.009*"plad"'), (47, '0.006*"kan" + 0.005*"køkken" + 0.005*"altan"'), (48, '0.009*"bolig" + 0.007*"kan" + 0.007*"ved"'), (49, '0.019*"cph" + 0.015*"porthous" + 0.009*"kan"')]
[27, 33]

STRONGEST:
- (27, '0.012*"kan" + 0.007*"plad" + 0.006*"københavn"')
- (33, '0.012*"altan" + 0.009*"lige" + 0.008*"nye"')


LOCATION: København Ø

[(0, '0.018*"lejligheden" + 0.012*"kan" + 0.009*"samt"'), (1, '0.020*"lejligheden" + 0.013*"kan" + 0.009*"lejligh"'), (2, '0.007*"kan" + 0.004*"boligen" + 0.004*"bolig"'), (3, '0.011*"lejligheden" + 0.008*"flot" + 0.006*"kan"'), (4, '0.008*"kan" + 0.004*"ved" + 0.004*"køkken"'), (5, '0.012*"kan" + 0.009*"køkken" + 0.009*"lejligheden"'), (6, '0.014*"bolig" + 0.010*"valbi" + 0.008*"nye"'), (7, '0.017*"kan" + 0.009*"lejligheden" + 0.006*"køkken"'), (8, '0.017*"kan" + 0.010*"lejligheden" + 0.008*"så"'), (9, '0.022*"kan" + 0.022*"scherfig" + 0.015*"bolig"'), (10, '0.011*"lejligheden" + 0.010*"kan" + 0.008*"helt"'), (11, '0.016*"lejligheden" + 0.012*"kan" + 0.011*"plad"'), (12, '0.013*"bolig" + 0.012*"nye" + 0.009*"valbi"'), (13, '0.017*"bolig" + 0.014*"kan" + 0.011*"valbi"'), (14, '0.009*"kan" + 0.007*"lejligheden" + 0.007*"nye"'), (15, '0.027*"bolig" + 0.023*"valbi" + 0.018*"samt"'), (16, '0.012*"kan" + 0.010*"lejligheden" + 0.009*"lejligh"'), (17, '0.012*"lejligh" + 0.012*"kan" + 0.010*"lejligheden"'), (18, '0.012*"lejligheden" + 0.012*"kan" + 0.009*"lejligh"'), (19, '0.007*"samt" + 0.007*"bolig" + 0.006*"modern"'), (20, '0.005*"porthous" + 0.005*"cph" + 0.004*"kan"'), (21, '0.012*"store" + 0.010*"nye" + 0.009*"altan"'), (22, '0.011*"kan" + 0.005*"bolig" + 0.005*"cph"'), (23, '0.013*"valbi" + 0.012*"nye" + 0.012*"bolig"'), (24, '0.007*"lejligheden" + 0.007*"ligger" + 0.006*"to"'), (25, '0.014*"lejligheden" + 0.013*"kan" + 0.007*"samt"'), (26, '0.021*"bolig" + 0.019*"kan" + 0.017*"scherfig"'), (27, '0.016*"lejligheden" + 0.012*"kan" + 0.007*"plad"'), (28, '0.013*"kan" + 0.009*"lejligheden" + 0.009*"ligger"'), (29, '0.012*"kan" + 0.008*"lejligheden" + 0.007*"plad"'), (30, '0.009*"kan" + 0.008*"byen" + 0.007*"lejligheden"'), (31, '0.007*"kan" + 0.007*"store" + 0.006*"lyse"'), (32, '0.014*"kan" + 0.010*"lejligheden" + 0.007*"gode"'), (33, '0.015*"lejligheden" + 0.014*"kan" + 0.010*"altan"'), (34, '0.022*"valbi" + 0.020*"bolig" + 0.018*"nye"'), (35, '0.009*"lejligh" + 0.007*"altan" + 0.007*"lejligheden"'), (36, '0.011*"kan" + 0.006*"samt" + 0.006*"plad"'), (37, '0.010*"kan" + 0.009*"lejligheden" + 0.008*"plad"'), (38, '0.019*"kan" + 0.011*"ligger" + 0.010*"lejligheden"'), (39, '0.015*"kan" + 0.010*"lejligheden" + 0.008*"plad"'), (40, '0.020*"cph" + 0.017*"porthous" + 0.013*"kan"'), (41, '0.010*"lejligheden" + 0.009*"kan" + 0.009*"plad"'), (42, '0.018*"bolig" + 0.011*"kan" + 0.009*"samt"'), (43, '0.011*"altan" + 0.011*"nye" + 0.011*"store"'), (44, '0.010*"kan" + 0.009*"lejligheden" + 0.007*"bolig"'), (45, '0.017*"kan" + 0.014*"cph" + 0.011*"bolig"'), (46, '0.015*"kan" + 0.013*"lejligheden" + 0.007*"plad"'), (47, '0.011*"kan" + 0.010*"lejligheden" + 0.007*"lejligh"'), (48, '0.014*"kan" + 0.010*"ved" + 0.009*"bolig"'), (49, '0.020*"kan" + 0.011*"lejligheden" + 0.007*"ligger"')]
[12, 27, 38, 40, 43]

STRONGEST:
- (12, '0.013*"bolig" + 0.012*"nye" + 0.009*"valbi"')
- (27, '0.016*"lejligheden" + 0.012*"kan" + 0.007*"plad"')
- (38, '0.019*"kan" + 0.011*"ligger" + 0.010*"lejligheden"')
- (40, '0.020*"cph" + 0.017*"porthous" + 0.013*"kan"')
- (43, '0.011*"altan" + 0.011*"nye" + 0.011*"store"')


LOCATION: København NV

[(0, '0.015*"kan" + 0.013*"lejligheden" + 0.010*"plad"'), (1, '0.013*"lejligheden" + 0.010*"kan" + 0.008*"plad"'), (2, '0.017*"bolig" + 0.013*"kan" + 0.011*"valbi"'), (3, '0.013*"kan" + 0.009*"lejligheden" + 0.009*"samt"'), (4, '0.009*"store" + 0.009*"plad" + 0.008*"lige"'), (5, '0.015*"kan" + 0.010*"scherfig" + 0.008*"bolig"'), (6, '0.016*"kan" + 0.010*"lejligheden" + 0.007*"ligger"'), (7, '0.015*"lejligheden" + 0.012*"altan" + 0.011*"bolig"'), (8, '0.011*"store" + 0.011*"nye" + 0.011*"ved"'), (9, '0.012*"kan" + 0.010*"lejligheden" + 0.009*"ved"'), (10, '0.019*"kan" + 0.018*"lejligheden" + 0.009*"samt"'), (11, '0.017*"kan" + 0.010*"bolig" + 0.010*"plad"'), (12, '0.011*"lejligheden" + 0.007*"ligger" + 0.007*"gode"'), (13, '0.013*"kan" + 0.008*"ligger" + 0.008*"cph"'), (14, '0.012*"kan" + 0.012*"ligger" + 0.008*"lejligheden"'), (15, '0.014*"kan" + 0.013*"bolig" + 0.012*"valbi"'), (16, '0.011*"kan" + 0.009*"lejligheden" + 0.007*"lejligh"'), (17, '0.008*"kan" + 0.006*"lejligheden" + 0.005*"ved"'), (18, '0.009*"bolig" + 0.007*"samt" + 0.006*"lejligheden"'), (19, '0.014*"valbi" + 0.012*"boligern" + 0.011*"nye"'), (20, '0.012*"lejligheden" + 0.008*"ved" + 0.008*"lejligh"'), (21, '0.017*"kan" + 0.010*"lejligheden" + 0.009*"samt"'), (22, '0.015*"kan" + 0.011*"lejligheden" + 0.010*"ligger"'), (23, '0.010*"nye" + 0.009*"valbi" + 0.008*"store"'), (24, '0.011*"kan" + 0.007*"gode" + 0.007*"ligger"'), (25, '0.022*"bolig" + 0.021*"scherfig" + 0.018*"kan"'), (26, '0.016*"kan" + 0.011*"lejligheden" + 0.009*"samt"'), (27, '0.019*"kan" + 0.008*"lejligheden" + 0.007*"lejligh"'), (28, '0.013*"bolig" + 0.013*"nye" + 0.011*"boligern"'), (29, '0.011*"kan" + 0.008*"plad" + 0.008*"store"'), (30, '0.015*"bolig" + 0.012*"valbi" + 0.011*"samt"'), (31, '0.011*"plad" + 0.010*"kan" + 0.009*"lejligheden"'), (32, '0.015*"lejligheden" + 0.012*"samt" + 0.008*"plad"'), (33, '0.011*"nordhavn" + 0.010*"kan" + 0.009*"adgang"'), (34, '0.011*"lejligheden" + 0.010*"ligger" + 0.009*"samt"'), (35, '0.015*"lejligheden" + 0.011*"kan" + 0.009*"ligger"'), (36, '0.024*"kan" + 0.009*"bolig" + 0.007*"scherfig"'), (37, '0.013*"bolig" + 0.011*"kan" + 0.009*"nye"'), (38, '0.017*"bolig" + 0.012*"kan" + 0.010*"samt"'), (39, '0.017*"kan" + 0.010*"bolig" + 0.010*"scherfig"'), (40, '0.012*"kan" + 0.010*"lejligheden" + 0.008*"plad"'), (41, '0.014*"lejligheden" + 0.013*"kan" + 0.008*"både"'), (42, '0.012*"kan" + 0.011*"ligger" + 0.009*"lejligheden"'), (43, '0.016*"lejligheden" + 0.010*"samt" + 0.009*"kan"'), (44, '0.015*"kan" + 0.010*"store" + 0.009*"lyse"'), (45, '0.012*"bolig" + 0.012*"nye" + 0.010*"samt"'), (46, '0.016*"lejligheden" + 0.015*"kan" + 0.007*"plad"'), (47, '0.030*"bolig" + 0.027*"valbi" + 0.021*"nye"'), (48, '0.014*"kan" + 0.008*"lejligheden" + 0.008*"bolig"'), (49, '0.016*"valbi" + 0.015*"bolig" + 0.013*"kan"')]
[4, 8, 25, 31]

STRONGEST:
- (4, '0.009*"store" + 0.009*"plad" + 0.008*"lige"')
- (8, '0.011*"store" + 0.011*"nye" + 0.011*"ved"')
- (25, '0.022*"bolig" + 0.021*"scherfig" + 0.018*"kan"')
- (31, '0.011*"plad" + 0.010*"kan" + 0.009*"lejligheden"')


LOCATION: København S

[(0, '0.014*"kan" + 0.012*"lavetten" + 0.011*"store"'), (1, '0.010*"kan" + 0.007*"lejligheden" + 0.004*"ligger"'), (2, '0.018*"kan" + 0.008*"ligger" + 0.007*"scherfig"'), (3, '0.011*"kan" + 0.008*"altan" + 0.007*"plad"'), (4, '0.015*"kan" + 0.009*"lejligheden" + 0.009*"gode"'), (5, '0.016*"lejligheden" + 0.012*"kan" + 0.009*"bolig"'), (6, '0.017*"kan" + 0.015*"bolig" + 0.008*"plad"'), (7, '0.016*"amag" + 0.016*"sadolin" + 0.012*"kan"'), (8, '0.011*"kan" + 0.008*"giver" + 0.008*"lyse"'), (9, '0.016*"kan" + 0.012*"lejligheden" + 0.006*"store"'), (10, '0.009*"kan" + 0.007*"store" + 0.007*"så"'), (11, '0.017*"kan" + 0.013*"bolig" + 0.012*"scherfig"'), (12, '0.015*"kan" + 0.010*"lejligheden" + 0.007*"gode"'), (13, '0.019*"sadolin" + 0.015*"amag" + 0.012*"københavn"'), (14, '0.012*"lejligheden" + 0.009*"kan" + 0.008*"ligger"'), (15, '0.017*"kan" + 0.007*"cph" + 0.007*"porthous"'), (16, '0.014*"bolig" + 0.011*"lejlighed" + 0.011*"egen"'), (17, '0.013*"lejligheden" + 0.012*"kan" + 0.007*"lavetten"'), (18, '0.014*"kan" + 0.012*"kalvebod" + 0.011*"huse"'), (19, '0.016*"kan" + 0.008*"store" + 0.007*"lejligheden"'), (20, '0.011*"lejligheden" + 0.011*"kan" + 0.008*"altan"'), (21, '0.015*"kan" + 0.007*"plad" + 0.007*"lejligheden"'), (22, '0.010*"kan" + 0.010*"altan" + 0.009*"lavetten"'), (23, '0.011*"lejligheden" + 0.011*"kan" + 0.010*"gode"'), (24, '0.016*"sadolin" + 0.014*"ligger" + 0.013*"amag"'), (25, '0.011*"kan" + 0.011*"bolig" + 0.010*"samt"'), (26, '0.016*"kan" + 0.010*"lejligheden" + 0.009*"ligger"'), (27, '0.033*"bolig" + 0.027*"valbi" + 0.025*"nye"'), (28, '0.019*"lejligheden" + 0.012*"kan" + 0.011*"lejligh"'), (29, '0.014*"bolig" + 0.012*"kalvebod" + 0.011*"huse"'), (30, '0.011*"scherfig" + 0.011*"kan" + 0.007*"bolig"'), (31, '0.014*"kan" + 0.012*"lejligheden" + 0.009*"store"'), (32, '0.017*"kan" + 0.011*"lejligheden" + 0.010*"ligger"'), (33, '0.012*"kan" + 0.007*"både" + 0.007*"københavn"'), (34, '0.016*"huse" + 0.014*"nye" + 0.014*"kalvebod"'), (35, '0.017*"kan" + 0.009*"lejligheden" + 0.008*"bolig"'), (36, '0.009*"lejligheden" + 0.009*"kan" + 0.009*"bolig"'), (37, '0.009*"kan" + 0.008*"altan" + 0.007*"amag"'), (38, '0.011*"ligger" + 0.011*"kan" + 0.009*"amag"'), (39, '0.013*"scherfig" + 0.012*"bolig" + 0.011*"kan"'), (40, '0.010*"kan" + 0.008*"modern" + 0.008*"bolig"'), (41, '0.013*"kan" + 0.010*"store" + 0.007*"samt"'), (42, '0.010*"kan" + 0.008*"store" + 0.008*"ligger"'), (43, '0.013*"kan" + 0.011*"bryggen" + 0.010*"island"'), (44, '0.012*"altan" + 0.011*"ved" + 0.009*"store"'), (45, '0.009*"bolig" + 0.009*"nye" + 0.009*"kan"'), (46, '0.013*"lejligheden" + 0.011*"kan" + 0.009*"god"'), (47, '0.013*"kan" + 0.006*"samt" + 0.006*"lejligheden"'), (48, '0.010*"kan" + 0.009*"bolig" + 0.008*"samt"'), (49, '0.011*"kan" + 0.009*"lejligheden" + 0.008*"altan"')]
[32, 44]

STRONGEST:
- (32, '0.017*"kan" + 0.011*"lejligheden" + 0.010*"ligger"')
- (44, '0.012*"altan" + 0.011*"ved" + 0.009*"store"')


LOCATION: København SV

[(0, '0.015*"kan" + 0.008*"både" + 0.008*"samt"'), (1, '0.015*"bolig" + 0.010*"kan" + 0.010*"altan"'), (2, '0.018*"kan" + 0.010*"bolig" + 0.008*"lejligheden"'), (3, '0.014*"kan" + 0.010*"store" + 0.009*"plad"'), (4, '0.016*"kan" + 0.010*"lejligheden" + 0.009*"store"'), (5, '0.014*"bolig" + 0.013*"lejlighed" + 0.012*"egen"'), (6, '0.019*"nye" + 0.016*"beliggend" + 0.016*"københavn"'), (7, '0.012*"bolig" + 0.011*"nye" + 0.010*"samt"'), (8, '0.011*"store" + 0.011*"kan" + 0.008*"nye"'), (9, '0.013*"kan" + 0.010*"lejligheden" + 0.008*"store"'), (10, '0.015*"københavn" + 0.014*"nye" + 0.014*"lejebolig"'), (11, '0.014*"kan" + 0.010*"bolig" + 0.007*"scherfig"'), (12, '0.014*"kan" + 0.009*"både" + 0.008*"københavn"'), (13, '0.011*"kan" + 0.008*"altan" + 0.006*"badeværels"'), (14, '0.018*"kan" + 0.009*"plad" + 0.007*"lejligheden"'), (15, '0.010*"københavn" + 0.009*"kan" + 0.009*"bolig"'), (16, '0.016*"kan" + 0.012*"lejligheden" + 0.009*"store"'), (17, '0.008*"køkken" + 0.008*"nye" + 0.008*"københavn"'), (18, '0.011*"kan" + 0.006*"store" + 0.006*"plad"'), (19, '0.013*"kan" + 0.008*"lejligheden" + 0.008*"bolig"'), (20, '0.016*"kan" + 0.008*"lejligheden" + 0.007*"byen"'), (21, '0.005*"plad" + 0.005*"så" + 0.005*"udsigt"'), (22, '0.010*"kan" + 0.010*"så" + 0.009*"ligger"'), (23, '0.010*"kan" + 0.010*"lejligheden" + 0.007*"ligger"'), (24, '0.010*"kan" + 0.009*"lejligheden" + 0.007*"københavn"'), (25, '0.013*"kan" + 0.011*"sadolin" + 0.010*"amag"'), (26, '0.012*"store" + 0.008*"altan" + 0.007*"giver"'), (27, '0.012*"kan" + 0.011*"bolig" + 0.010*"adgang"'), (28, '0.017*"kan" + 0.012*"lejligheden" + 0.007*"samt"'), (29, '0.019*"nye" + 0.014*"københavn" + 0.012*"lejebolig"'), (30, '0.009*"lejligheden" + 0.009*"altan" + 0.009*"samt"'), (31, '0.021*"bolig" + 0.014*"nye" + 0.012*"valbi"'), (32, '0.013*"bolig" + 0.012*"nye" + 0.009*"beliggend"'), (33, '0.016*"kan" + 0.011*"lejligheden" + 0.008*"plad"'), (34, '0.015*"lejligheden" + 0.008*"altan" + 0.008*"samt"'), (35, '0.016*"kan" + 0.011*"store" + 0.008*"bolig"'), (36, '0.009*"kan" + 0.008*"københavn" + 0.007*"nye"'), (37, '0.014*"nye" + 0.013*"kalvebod" + 0.013*"bolig"'), (38, '0.014*"kan" + 0.010*"lejligheden" + 0.007*"store"'), (39, '0.009*"kan" + 0.006*"både" + 0.006*"badeværels"'), (40, '0.014*"lejligheden" + 0.012*"kan" + 0.009*"nye"'), (41, '0.009*"lyngholm" + 0.009*"kan" + 0.008*"københavn"'), (42, '0.015*"kan" + 0.010*"ligger" + 0.009*"nye"'), (43, '0.010*"altan" + 0.010*"bolig" + 0.010*"store"'), (44, '0.017*"nye" + 0.012*"lejebolig" + 0.011*"sadolin"'), (45, '0.014*"lejligheden" + 0.010*"samt" + 0.009*"kan"'), (46, '0.011*"kan" + 0.009*"lejligheden" + 0.008*"altan"'), (47, '0.008*"kan" + 0.007*"lejligheden" + 0.007*"altan"'), (48, '0.015*"amag" + 0.013*"sadolin" + 0.013*"københavn"'), (49, '0.019*"kan" + 0.010*"samt" + 0.007*"lejligh"')]
[0, 7, 33]

STRONGEST:
- (0, '0.015*"kan" + 0.008*"både" + 0.008*"samt"')
- (7, '0.012*"bolig" + 0.011*"nye" + 0.010*"samt"')
- (33, '0.016*"kan" + 0.011*"lejligheden" + 0.008*"plad"')


LOCATION: Brønshøj

[(0, '0.012*"kan" + 0.011*"bolig" + 0.010*"samt"'), (1, '0.009*"bolig" + 0.008*"lejlighed" + 0.008*"kan"'), (2, '0.015*"kan" + 0.010*"lejligheden" + 0.008*"ejendommen"'), (3, '0.012*"kan" + 0.009*"plad" + 0.008*"lejligheden"'), (4, '0.010*"store" + 0.009*"lejligheden" + 0.008*"adgang"'), (5, '0.012*"kan" + 0.010*"lejligheden" + 0.009*"altan"'), (6, '0.015*"kan" + 0.007*"samt" + 0.006*"så"'), (7, '0.015*"lejligheden" + 0.014*"kan" + 0.007*"gode"'), (8, '0.018*"lavetten" + 0.013*"store" + 0.010*"unikk"'), (9, '0.010*"lejligheden" + 0.008*"samt" + 0.007*"gode"'), (10, '0.015*"sadolin" + 0.014*"kan" + 0.013*"amag"'), (11, '0.011*"badeværels" + 0.009*"store" + 0.009*"stor"'), (12, '0.015*"bolig" + 0.014*"kan" + 0.013*"scherfig"'), (13, '0.008*"værels" + 0.008*"sadolin" + 0.007*"københavn"'), (14, '0.016*"lejligheden" + 0.013*"kan" + 0.009*"plad"'), (15, '0.023*"nye" + 0.015*"københavn" + 0.015*"nordkajen"'), (16, '0.014*"ligger" + 0.014*"kan" + 0.009*"både"'), (17, '0.012*"boligern" + 0.007*"vandet" + 0.006*"gode"'), (18, '0.011*"samt" + 0.010*"kan" + 0.007*"altan"'), (19, '0.019*"kan" + 0.009*"lejligheden" + 0.009*"lejligh"'), (20, '0.011*"kan" + 0.008*"samt" + 0.008*"plad"'), (21, '0.009*"nordkajen" + 0.008*"nye" + 0.007*"flere"'), (22, '0.010*"kan" + 0.008*"bolig" + 0.007*"plad"'), (23, '0.010*"ligger" + 0.007*"altan" + 0.007*"samt"'), (24, '0.022*"bolig" + 0.017*"kan" + 0.010*"nye"'), (25, '0.013*"kalvebod" + 0.012*"huse" + 0.012*"store"'), (26, '0.010*"samt" + 0.009*"kan" + 0.009*"lejligheden"'), (27, '0.014*"lejligheden" + 0.011*"kan" + 0.008*"bolig"'), (28, '0.014*"bolig" + 0.009*"kan" + 0.008*"lejlighed"'), (29, '0.015*"nye" + 0.013*"ligger" + 0.012*"lejligheden"'), (30, '0.011*"brygg" + 0.011*"byen" + 0.010*"bastion"'), (31, '0.018*"kan" + 0.007*"lejligheden" + 0.006*"ved"'), (32, '0.010*"kan" + 0.010*"bolig" + 0.009*"samt"'), (33, '0.016*"bolig" + 0.014*"nye" + 0.010*"altan"'), (34, '0.014*"lejlighed" + 0.011*"bolig" + 0.011*"kalvebod"'), (35, '0.020*"bolig" + 0.017*"nye" + 0.015*"valbi"'), (36, '0.017*"kan" + 0.010*"lejligheden" + 0.009*"københavn"'), (37, '0.019*"sadolin" + 0.017*"amag" + 0.015*"københavn"'), (38, '0.011*"kan" + 0.008*"lejligheden" + 0.007*"samt"'), (39, '0.011*"bolig" + 0.010*"kan" + 0.008*"plad"'), (40, '0.013*"kan" + 0.010*"lejligheden" + 0.010*"lavetten"'), (41, '0.012*"lavetten" + 0.011*"kan" + 0.008*"køkken"'), (42, '0.013*"store" + 0.009*"nye" + 0.008*"bolig"'), (43, '0.007*"beliggend" + 0.007*"hu" + 0.007*"nye"'), (44, '0.012*"kan" + 0.012*"lejligheden" + 0.006*"både"'), (45, '0.012*"kan" + 0.010*"lejligheden" + 0.008*"store"'), (46, '0.010*"lejligheden" + 0.009*"store" + 0.009*"nye"'), (47, '0.014*"bolig" + 0.013*"lejlighed" + 0.012*"egen"'), (48, '0.009*"altan" + 0.008*"vandet" + 0.007*"københavn"'), (49, '0.011*"kan" + 0.010*"nye" + 0.009*"så"')]
[19, 33]

STRONGEST:
- (19, '0.019*"kan" + 0.009*"lejligheden" + 0.009*"lejligh"')
- (33, '0.016*"bolig" + 0.014*"nye" + 0.010*"altan"')


LOCATION: Vanløse

[(0, '0.014*"kan" + 0.009*"samt" + 0.009*"ved"'), (1, '0.010*"kan" + 0.009*"amag" + 0.008*"ligger"'), (2, '0.012*"bolig" + 0.010*"lejligheden" + 0.009*"nye"'), (3, '0.013*"bolig" + 0.011*"lejlighed" + 0.009*"boligern"'), (4, '0.023*"nye" + 0.015*"københavn" + 0.014*"lejebolig"'), (5, '0.016*"kan" + 0.009*"lejligheden" + 0.008*"store"'), (6, '0.010*"kan" + 0.007*"gode" + 0.006*"store"'), (7, '0.011*"bolig" + 0.009*"samt" + 0.008*"kan"'), (8, '0.011*"kan" + 0.010*"lejligheden" + 0.007*"plad"'), (9, '0.014*"bolig" + 0.013*"kan" + 0.010*"nye"'), (10, '0.017*"sadolin" + 0.012*"amag" + 0.011*"ligger"'), (11, '0.012*"kalvebod" + 0.011*"bolig" + 0.011*"huse"'), (12, '0.011*"lejligheden" + 0.010*"kan" + 0.008*"lejligh"'), (13, '0.009*"kan" + 0.007*"så" + 0.006*"både"'), (14, '0.008*"samt" + 0.007*"køkken" + 0.006*"kan"'), (15, '0.010*"kan" + 0.010*"nye" + 0.010*"københavn"'), (16, '0.013*"bolig" + 0.011*"kan" + 0.010*"nye"'), (17, '0.019*"valbi" + 0.016*"bolig" + 0.012*"nye"'), (18, '0.010*"kan" + 0.007*"to" + 0.007*"lejligheden"'), (19, '0.011*"kan" + 0.011*"huse" + 0.010*"nye"'), (20, '0.014*"kan" + 0.011*"bolig" + 0.011*"plad"'), (21, '0.022*"bolig" + 0.014*"lejlighed" + 0.013*"egen"'), (22, '0.010*"lejligheden" + 0.009*"kan" + 0.008*"samt"'), (23, '0.016*"nye" + 0.011*"teglholmen" + 0.010*"flere"'), (24, '0.013*"kan" + 0.009*"lejligheden" + 0.007*"både"'), (25, '0.011*"kan" + 0.010*"bolig" + 0.008*"store"'), (26, '0.012*"kan" + 0.012*"lejligheden" + 0.012*"ligger"'), (27, '0.014*"kan" + 0.012*"lejligheden" + 0.010*"plad"'), (28, '0.021*"kan" + 0.012*"lejligheden" + 0.008*"ligger"'), (29, '0.010*"kan" + 0.009*"altan" + 0.008*"lejligheden"'), (30, '0.010*"samt" + 0.008*"ligger" + 0.008*"kan"'), (31, '0.016*"kan" + 0.011*"store" + 0.007*"ligger"'), (32, '0.017*"lejligheden" + 0.012*"kan" + 0.009*"ligger"'), (33, '0.016*"kan" + 0.008*"store" + 0.008*"samt"'), (34, '0.012*"bolig" + 0.011*"kan" + 0.009*"altan"'), (35, '0.009*"kan" + 0.009*"københavn" + 0.008*"bolig"'), (36, '0.014*"kan" + 0.010*"bolig" + 0.009*"grønne"'), (37, '0.008*"lejligh" + 0.007*"kan" + 0.007*"lejligheden"'), (38, '0.011*"kan" + 0.009*"badeværels" + 0.008*"samt"'), (39, '0.014*"kan" + 0.009*"lejligheden" + 0.008*"bolig"'), (40, '0.014*"kan" + 0.010*"plad" + 0.008*"lavetten"'), (41, '0.012*"sadolin" + 0.012*"nye" + 0.011*"amag"'), (42, '0.009*"amag" + 0.009*"kan" + 0.007*"samt"'), (43, '0.022*"nye" + 0.016*"københavn" + 0.014*"beliggend"'), (44, '0.022*"bolig" + 0.021*"valbi" + 0.016*"nye"'), (45, '0.008*"altan" + 0.008*"kan" + 0.007*"lejligheden"'), (46, '0.009*"samt" + 0.008*"kan" + 0.008*"bolig"'), (47, '0.020*"kan" + 0.008*"ligger" + 0.007*"både"'), (48, '0.016*"bolig" + 0.014*"scherfig" + 0.012*"kan"'), (49, '0.017*"lejligheden" + 0.013*"kan" + 0.007*"gode"')]
[20]

STRONGEST:
- (20, '0.014*"kan" + 0.011*"bolig" + 0.011*"plad"')


LOCATION: Hellerup

[(0, '0.016*"kan" + 0.007*"samt" + 0.006*"lejligheden"'), (1, '0.009*"lejligheden" + 0.008*"samt" + 0.007*"store"'), (2, '0.018*"kan" + 0.008*"ligger" + 0.008*"både"'), (3, '0.010*"kalvebod" + 0.009*"store" + 0.008*"lejligheden"'), (4, '0.018*"lejligheden" + 0.013*"kan" + 0.009*"plad"'), (5, '0.019*"bolig" + 0.011*"scherfig" + 0.011*"kan"'), (6, '0.012*"lejlighed" + 0.011*"amag" + 0.011*"bolig"'), (7, '0.019*"lejligheden" + 0.013*"kan" + 0.011*"lejligh"'), (8, '0.013*"kan" + 0.008*"lejligheden" + 0.007*"altan"'), (9, '0.015*"lejlighed" + 0.012*"huse" + 0.012*"kalvebod"'), (10, '0.012*"kan" + 0.011*"plad" + 0.010*"lejligheden"'), (11, '0.008*"samt" + 0.008*"kan" + 0.008*"lejligheden"'), (12, '0.011*"lejligheden" + 0.007*"altan" + 0.006*"plad"'), (13, '0.014*"kan" + 0.008*"lavetten" + 0.008*"plad"'), (14, '0.013*"lejligheden" + 0.010*"kan" + 0.008*"flot"'), (15, '0.011*"kan" + 0.010*"store" + 0.006*"badeværels"'), (16, '0.010*"badeværels" + 0.009*"kan" + 0.007*"stor"'), (17, '0.019*"nye" + 0.016*"københavn" + 0.014*"lejebolig"'), (18, '0.018*"kan" + 0.010*"lejligheden" + 0.008*"ligger"'), (19, '0.011*"kan" + 0.010*"store" + 0.009*"nye"'), (20, '0.011*"bolig" + 0.010*"kan" + 0.007*"plad"'), (21, '0.011*"store" + 0.011*"lejligheden" + 0.010*"altan"'), (22, '0.011*"kan" + 0.011*"lejligheden" + 0.008*"plad"'), (23, '0.015*"lavetten" + 0.011*"kan" + 0.008*"store"'), (24, '0.013*"kan" + 0.009*"bolig" + 0.008*"samt"'), (25, '0.021*"lejligheden" + 0.012*"kan" + 0.009*"plad"'), (26, '0.014*"kan" + 0.009*"lejligheden" + 0.008*"plad"'), (27, '0.011*"kan" + 0.009*"lejligheden" + 0.007*"både"'), (28, '0.012*"nye" + 0.011*"kan" + 0.010*"så"'), (29, '0.014*"kan" + 0.008*"lejligh" + 0.007*"ligger"'), (30, '0.015*"kan" + 0.011*"kalvebod" + 0.010*"store"'), (31, '0.018*"kan" + 0.009*"lejligheden" + 0.008*"scherfig"'), (32, '0.014*"amag" + 0.013*"lejlighed" + 0.013*"bolig"'), (33, '0.016*"kan" + 0.006*"ligger" + 0.005*"plad"'), (34, '0.008*"lejlighed" + 0.008*"bolig" + 0.007*"store"'), (35, '0.012*"lejligheden" + 0.011*"kan" + 0.007*"badeværels"'), (36, '0.020*"kan" + 0.016*"bolig" + 0.011*"scherfig"'), (37, '0.011*"kan" + 0.011*"lejligheden" + 0.008*"to"'), (38, '0.015*"kan" + 0.013*"bolig" + 0.008*"nye"'), (39, '0.010*"kan" + 0.009*"scherfig" + 0.008*"bolig"'), (40, '0.006*"stort" + 0.005*"egen" + 0.005*"samt"'), (41, '0.013*"kan" + 0.010*"samt" + 0.008*"badeværels"'), (42, '0.010*"kan" + 0.007*"lejligheden" + 0.007*"ligger"'), (43, '0.011*"kan" + 0.009*"lejligheden" + 0.009*"plad"'), (44, '0.015*"bolig" + 0.013*"nye" + 0.013*"valbi"'), (45, '0.010*"kan" + 0.010*"samt" + 0.008*"lejligheden"'), (46, '0.013*"kan" + 0.008*"store" + 0.007*"altan"'), (47, '0.010*"bolig" + 0.009*"kalvebod" + 0.009*"huse"'), (48, '0.016*"kan" + 0.010*"lejligheden" + 0.010*"køkken"'), (49, '0.015*"nye" + 0.011*"nordkajen" + 0.010*"københavn"')]
[10, 19, 20]

STRONGEST:
- (20, '0.011*"bolig" + 0.010*"kan" + 0.007*"plad"')
- (10, '0.012*"kan" + 0.011*"plad" + 0.010*"lejligheden"')
- (19, '0.011*"kan" + 0.010*"store" + 0.009*"nye"')


LOCATION: Frederiksberg

[(0, '0.011*"kan" + 0.011*"store" + 0.010*"kalvebod"'), (1, '0.013*"kan" + 0.010*"lejligheden" + 0.008*"boligen"'), (2, '0.014*"lejligheden" + 0.013*"kan" + 0.010*"både"'), (3, '0.011*"kan" + 0.007*"adgang" + 0.007*"samt"'), (4, '0.007*"store" + 0.006*"kan" + 0.006*"sal"'), (5, '0.010*"store" + 0.008*"amag" + 0.008*"ligger"'), (6, '0.014*"altan" + 0.011*"store" + 0.008*"adgang"'), (7, '0.008*"kan" + 0.008*"lejligheden" + 0.008*"store"'), (8, '0.017*"huse" + 0.015*"kalvebod" + 0.013*"store"'), (9, '0.009*"lavetten" + 0.008*"altan" + 0.008*"ejendommen"'), (10, '0.013*"kan" + 0.012*"bolig" + 0.009*"boligern"'), (11, '0.014*"kan" + 0.008*"lejlighed" + 0.007*"lejligheden"'), (12, '0.015*"kan" + 0.009*"lejligheden" + 0.008*"ligger"'), (13, '0.010*"lejligheden" + 0.009*"kan" + 0.008*"samt"'), (14, '0.011*"kan" + 0.010*"bolig" + 0.010*"boligern"'), (15, '0.014*"kan" + 0.010*"store" + 0.008*"både"'), (16, '0.013*"kan" + 0.009*"lejligheden" + 0.007*"altan"'), (17, '0.012*"lejligheden" + 0.011*"kan" + 0.009*"store"'), (18, '0.009*"kan" + 0.009*"plad" + 0.008*"bolig"'), (19, '0.014*"bolig" + 0.010*"kan" + 0.008*"scherfig"'), (20, '0.011*"lejligheden" + 0.010*"samt" + 0.009*"ligger"'), (21, '0.017*"kan" + 0.007*"ligger" + 0.006*"samt"'), (22, '0.009*"sadolin" + 0.008*"kan" + 0.008*"amag"'), (23, '0.019*"lejligheden" + 0.014*"kan" + 0.007*"gode"'), (24, '0.011*"bolig" + 0.011*"kan" + 0.008*"nye"'), (25, '0.012*"kalvebod" + 0.010*"huse" + 0.010*"to"'), (26, '0.008*"lejligheden" + 0.007*"plad" + 0.007*"køkken"'), (27, '0.018*"lejligheden" + 0.013*"kan" + 0.008*"store"'), (28, '0.011*"kan" + 0.008*"lejligheden" + 0.007*"badeværels"'), (29, '0.016*"kan" + 0.010*"lejligheden" + 0.007*"to"'), (30, '0.017*"lavetten" + 0.014*"kan" + 0.013*"store"'), (31, '0.015*"kan" + 0.010*"samt" + 0.008*"store"'), (32, '0.020*"kan" + 0.011*"lejligheden" + 0.007*"ligger"'), (33, '0.014*"lejligheden" + 0.011*"kan" + 0.007*"stort"'), (34, '0.012*"lejligheden" + 0.012*"ligger" + 0.012*"kan"'), (35, '0.015*"kan" + 0.010*"bolig" + 0.008*"nye"'), (36, '0.012*"kan" + 0.010*"lejligheden" + 0.009*"bolig"'), (37, '0.012*"bolig" + 0.011*"store" + 0.010*"nye"'), (38, '0.011*"bolig" + 0.010*"nye" + 0.009*"kan"'), (39, '0.013*"kan" + 0.009*"plad" + 0.008*"lejligheden"'), (40, '0.011*"kan" + 0.009*"københavn" + 0.008*"ligger"'), (41, '0.016*"nye" + 0.013*"nordkajen" + 0.010*"kan"'), (42, '0.012*"plad" + 0.011*"kan" + 0.009*"samt"'), (43, '0.012*"kan" + 0.011*"ligger" + 0.008*"lejligheden"'), (44, '0.011*"bolig" + 0.011*"lejlighed" + 0.011*"nye"'), (45, '0.019*"kan" + 0.011*"plad" + 0.009*"bolig"'), (46, '0.012*"kan" + 0.011*"lejligheden" + 0.007*"bolig"'), (47, '0.010*"kan" + 0.006*"lejligh" + 0.006*"bolig"'), (48, '0.013*"nye" + 0.012*"københavn" + 0.011*"beliggend"'), (49, '0.017*"nye" + 0.015*"bolig" + 0.010*"københavn"')]
[6, 42]

STRONGEST:
- (6, '0.014*"altan" + 0.011*"store" + 0.008*"adgang"')
- (42, '0.012*"plad" + 0.011*"kan" + 0.009*"samt"')
